cksum.vcd
$date
	Mon Oct 31 20:38:44 2022
$end
$version
	Icarus Verilog
$end
$timescale
	1ps
$end
$scope module cksum_tb $end
$var wire 1 ! kill $end
$var wire 1 " done $end
$var reg 2 # axiid [1:0] $end
$var reg 1 $ axiiv $end
$var reg 1 % clk $end
$var reg 168 & message [167:0] $end
$var reg 1 ' rst $end
$scope module testOrder $end
$var wire 2 ( axiid [1:0] $end
$var wire 1 $ axiiv $end
$var wire 1 % clk $end
$var wire 1 ) crc_rst $end
$var wire 1 ' rst $end
$var wire 32 * axiod [31:0] $end
$var reg 1 + check_end $end
$var reg 1 " done $end
$var reg 1 ! kill $end
$var reg 1 , now_check_phase $end
$scope module crc32_bzip2 $end
$var wire 2 - axiid [1:0] $end
$var wire 1 $ axiiv $end
$var wire 32 . axiod [31:0] $end
$var wire 1 / axiov $end
$var wire 1 % clk $end
$var wire 1 ) rst $end
$var reg 32 0 caxiod [31:0] $end
$var reg 32 1 saxiod [31:0] $end
$var integer 32 2 i [31:0] $end
$upscope $end
$upscope $end
$scope begin $ivl_for_loop0 $end
$var integer 32 3 x [31:0] $end
$upscope $end
$upscope $end
$enddefinitions $end
#0
$dumpvars
b0 3
b100000 2
bx 1
bx 0
1/
bx .
b0 -
x,
x+
bx *
1)
b0 (
1'
b10000100110000101110010011100100111100100100001001000000100001001110010011001010110000101101011011001100110000101110011011101000010000001110100011010010110110101100101 &
0%
0$
b0 #
x"
x!
$end
#10000000000000
b11110010101111001101100100100101 1
b100000 2
b0 *
b0 .
b11111111111111111111111111111111 0
1+
0,
1!
1"
1%
#20000000000000
0%
#30000000000000
0+
0!
0"
1%
#40000000000000
0%
#50000000000000
1%
#60000000000000
0)
b11110110011111011100010010010010 1
b100000 2
0%
b10 #
b10 (
b10 -
b10100110 3
1$
0'
#70000000000000
b11010000011101010010100100100110 1
b100000 2
b1001100000100011101101101101 *
b1001100000100011101101101101 .
1,
b11110110011111011100010010010010 0
1%
#80000000000000
b11010100101101000011010010010001 1
b100000 2
0%
b0 #
b0 (
b0 -
b10100100 3
#90000000000000
b1011111100100111111010010011101 1
b100000 2
b101011010010111100101101101110 *
b101011010010111100101101101110 .
b11010100101101000011010010010001 0
1%
#100000000000000
0%
b10100010 3
#110000000000000
b1111010100011101100111111000011 1
b100000 2
b10100000011011000000101101100010 *
b10100000011011000000101101100010 .
b1011111100100111111010010011101 0
1%
#120000000000000
b1110011000011001111010010101101 1
b100000 2
0%
b1 #
b1 (
b1 -
b10100000 3
#130000000000000
b11000001011100001111010001101101 1
b100000 2
b10001100111100110000101101010010 *
b10001100111100110000101101010010 .
b1110011000011001111010010101101 0
1%
#140000000000000
b11001100001100111101001010110100 1
b100000 2
0%
b10 #
b10 (
b10 -
b10011110 3
#150000000000000
b111001010011010111000110111110 1
b100000 2
b110011110011000010110101001011 *
b110011110011000010110101001011 .
b11001100001100111101001010110100 0
1%
#160000000000000
b110100000011100101011101100111 1
b100000 2
0%
b1 #
b1 (
b1 -
b10011100 3
#170000000000000
b11011001101110110110011011110010 1
b100000 2
b11001011111100011010100010011000 *
b11001011111100011010100010011000 .
b110100000011100101011101100111 0
1%
#180000000000000
b11010000001110010101110110011100 1
b100000 2
0%
b0 #
b0 (
b0 -
b10011010 3
#190000000000000
b1001101101001100101000010101001 1
b100000 2
b101111110001101010001001100011 *
b101111110001101010001001100011 .
b11010000001110010101110110011100 0
1%
#200000000000000
b1001001011001110100110100011110 1
b100000 2
0%
b10 #
b10 (
b10 -
b10011000 3
#210000000000000
b100101100111010011010001111000 1
b100000 2
b10110110100110001011001011100001 *
b10110110100110001011001011100001 .
b1001001011001110100110100011110 0
1%
#220000000000000
0%
b10010110 3
#230000000000000
b10010010101101011100110001010111 1
b100000 2
b11011010011000101100101110000111 *
b11011010011000101100101110000111 .
b100101100111010011010001111000 0
1%
#240000000000000
b10011011001101111111011100111001 1
b100000 2
0%
b11 #
b11 (
b11 -
b10010100 3
#250000000000000
b1101000000111101100000101010011 1
b100000 2
b1100100110010000000100011000110 *
b1100100110010000000100011000110 .
b10011011001101111111011100111001 0
1%
#260000000000000
b1100101010111011110011110001010 1
b100000 2
0%
b0 #
b0 (
b0 -
b10010010 3
#270000000000000
b10010001101101101000001110011111 1
b100000 2
b10011010101000100001100001110101 *
b10011010101000100001100001110101 .
b1100101010111011110011110001010 0
1%
#280000000000000
b10011000001101001011100011110001 1
b100000 2
0%
b1 #
b1 (
b1 -
b10010000 3
#290000000000000
b1100000110100101110001111000100 1
b100000 2
b1100111110010110100011100001110 *
b1100111110010110100011100001110 .
b10011000001101001011100011110001 0
1%
#300000000000000
b1101101100100011100010100011101 1
b100000 2
0%
b10 #
b10 (
b10 -
b10001110 3
#310000000000000
b10110110010001110001010001110100 1
b100000 2
b10010010011011100011101011100010 *
b10010010011011100011101011100010 .
b1101101100100011100010100011101 0
1%
#320000000000000
b10111111110001010010111100011010 1
b100000 2
0%
b11 #
b11 (
b11 -
b10001100 3
#330000000000000
b11111011110101011010000111011111 1
b100000 2
b1000000001110101101000011100101 *
b1000000001110101101000011100101 .
b10111111110001010010111100011010 0
1%
#340000000000000
b11110110100101101000011100000110 1
b100000 2
0%
b0 #
b0 (
b0 -
b10001010 3
#350000000000000
b11010111000110010011101011000001 1
b100000 2
b1001011010010111100011111001 *
b1001011010010111100011111001 .
b11110110100101101000011100000110 0
1%
#360000000000000
b11011110100110110000000110101111 1
b100000 2
0%
b1 #
b1 (
b1 -
b10001000 3
#370000000000000
b1111110101011010001101100001011 1
b100000 2
b100001011001001111111001010000 *
b100001011001001111111001010000 .
b11011110100110110000000110101111 0
1%
#380000000000000
b1110011111011100011110111010010 1
b100000 2
0%
b10 #
b10 (
b10 -
b10000110 3
#390000000000000
b11001111101110001111011101001000 1
b100000 2
b10001100000100011100001000101101 *
b10001100000100011100001000101101 .
b1110011111011100011110111010010 0
1%
#400000000000000
b11000110001110101100110000100110 1
b100000 2
0%
b11 #
b11 (
b11 -
b10000100 3
#410000000000000
b11000111010110011000010011000 1
b100000 2
b111001110001010011001111011001 *
b111001110001010011001111011001 .
b11000110001110101100110000100110 0
1%
#420000000000000
b11100001010100010110100101111 1
b100000 2
0%
b1 #
b1 (
b1 -
b10000010 3
#430000000000000
b1111001001010101000111111010010 1
b100000 2
b11100011110101011101001011010000 *
b11100011110101011101001011010000 .
b11100001010100010110100101111 0
1%
#440000000000000
b1110100011010011010100100001011 1
b100000 2
0%
b10 #
b10 (
b10 -
b10000000 3
#450000000000000
b11010001101001101010010000101100 1
b100000 2
b10001011100101100101011011110100 *
b10001011100101100101011011110100 .
b1110100011010011010100100001011 0
1%
#460000000000000
b11010101011001111011100110011011 1
b100000 2
0%
b0 #
b0 (
b0 -
b1111110 3
#470000000000000
b1011000110111011100000010110101 1
b100000 2
b101010100110000100011001100100 *
b101010100110000100011001100100 .
b11010101011001111011100110011011 0
1%
#480000000000000
b1010001010111111111101111011011 1
b100000 2
0%
b1 #
b1 (
b1 -
b1111100 3
#490000000000000
b1001000001111001100100110110101 1
b100000 2
b10101110101000000000010000100100 *
b10101110101000000000010000100100 .
b1010001010111111111101111011011 0
1%
#500000000000000
b1000001101111101111001011011011 1
b100000 2
0%
b0 #
b0 (
b0 -
b1111010 3
#510000000000000
b10001110101101011011011011 1
b100000 2
b10111110010000010000110100100100 *
b10111110010000010000110100100100 .
b1000001101111101111001011011011 0
1%
#520000000000000
b110111110111100101101101100 1
b100000 2
0%
b10 #
b10 (
b10 -
b1111000 3
#530000000000000
b11111001011100011000000000111 1
b100000 2
b11111001000001000011010010010011 *
b11111001000001000011010010010011 .
b110111110111100101101101100 0
1%
#540000000000000
b11011111011110010110110110000 1
b100000 2
0%
b0 #
b0 (
b0 -
b1110110 3
#550000000000000
b1101111101111001011011011000000 1
b100000 2
b11100100000100001101001001001111 *
b11100100000100001101001001001111 .
b11011111011110010110110110000 0
1%
#560000000000000
b1100110001111101000110110101110 1
b100000 2
0%
b1 #
b1 (
b1 -
b1110100 3
#570000000000000
b10010101101110010001000001100001 1
b100000 2
b10011001110000010111001001010001 *
b10011001110000010111001001010001 .
b1100110001111101000110110101110 0
1%
#580000000000000
b10011100001110110010101100001111 1
b100000 2
0%
b0 #
b0 (
b0 -
b1110010 3
#590000000000000
b1111001011011101001011101010010 1
b100000 2
b1100011110001001101010011110000 *
b1100011110001001101010011110000 .
b10011100001110110010101100001111 0
1%
#600000000000000
0%
b1110000 3
#610000000000000
b11100001011110110100000011111111 1
b100000 2
b10000110100100010110100010101101 *
b10000110100100010110100010101101 .
b1111001011011101001011101010010 0
1%
#620000000000000
b11100101101110100101110101001000 1
b100000 2
0%
b10 #
b10 (
b10 -
b1101110 3
#630000000000000
b10011111011010110100111001001110 1
b100000 2
b11010010001011010001010110111 *
b11010010001011010001010110111 .
b11100101101110100101110101001000 0
1%
#640000000000000
b10011011101010100101001111111001 1
b100000 2
0%
b0 #
b0 (
b0 -
b1101100 3
#650000000000000
b1100111001010110111010010001010 1
b100000 2
b1100100010101011010110000000110 *
b1100100010101011010110000000110 .
b10011011101010100101001111111001 0
1%
#660000000000000
0%
b1101010 3
#670000000000000
b10011000011011001100111110011111 1
b100000 2
b10011000110101001000101101110101 *
b10011000110101001000101101110101 .
b1100111001010110111010010001010 0
1%
#680000000000000
b10010001111011101111010011110001 1
b100000 2
0%
b1 #
b1 (
b1 -
b1101000 3
#690000000000000
b1000111101110111101001111000100 1
b100000 2
b1101110000100010000101100001110 *
b1101110000100010000101100001110 .
b10010001111011101111010011110001 0
1%
#700000000000000
b1001010111110001111010100011101 1
b100000 2
0%
b10 #
b10 (
b10 -
b1100110 3
#710000000000000
b101011111000111101010001110100 1
b100000 2
b10110101000001110000101011100010 *
b10110101000001110000101011100010 .
b1001010111110001111010100011101 0
1%
#720000000000000
b100010011000011110111100011010 1
b100000 2
0%
b11 #
b11 (
b11 -
b1100100 3
#730000000000000
b10000100110001001001101010110001 1
b100000 2
b11011101100111100001000011100101 *
b11011101100111100001000011100101 .
b100010011000011110111100011010 0
1%
#740000000000000
b10001001100001111011110001101000 1
b100000 2
0%
b0 #
b0 (
b0 -
b1100010 3
#750000000000000
b101111100111001100101011001110 1
b100000 2
b1110110011110000100001110010111 *
b1110110011110000100001110010111 .
b10001001100001111011110001101000 0
1%
#760000000000000
b100110000111101111000110100000 1
b100000 2
0%
b1 #
b1 (
b1 -
b1100000 3
#770000000000000
b10010001111110011111110111101110 1
b100000 2
b11011001111000010000111001011111 *
b11011001111000010000111001011111 .
b100110000111101111000110100000 0
1%
#780000000000000
b10011100101110101101101100110111 1
b100000 2
0%
b10 #
b10 (
b10 -
b1011110 3
#790000000000000
b1111111101010000100101000000101 1
b100000 2
b1100011010001010010010011001000 *
b1100011010001010010010011001000 .
b10011100101110101101101100110111 0
1%
#800000000000000
b1110010111010110110110011011100 1
b100000 2
0%
b1 #
b1 (
b1 -
b1011100 3
#810000000000000
b11000110111011101001010110101001 1
b100000 2
b10001101000101001001001100100011 *
b10001101000101001001001100100011 .
b1110010111010110110110011011100 0
1%
#820000000000000
b11001011101011011011001101110000 1
b100000 2
0%
b10 #
b10 (
b10 -
b1011010 3
#830000000000000
b100111001101001111011010101110 1
b100000 2
b110100010100100100110010001111 *
b110100010100100100110010001111 .
b11001011101011011011001101110000 0
1%
#840000000000000
0%
b1011000 3
#850000000000000
b10011000000100101100011100001111 1
b100000 2
b11011000110010110000100101010001 *
b11011000110010110000100101010001 .
b100111001101001111011010101110 0
1%
#860000000000000
0%
b1010110 3
#870000000000000
b1101101000010000011101011100101 1
b100000 2
b1100111111011010011100011110000 *
b1100111111011010011100011110000 .
b10011000000100101100011100001111 0
1%
#880000000000000
b1100000010010110001110000111100 1
b100000 2
0%
b1 #
b1 (
b1 -
b1010100 3
#890000000000000
b10001100011011110101011000101001 1
b100000 2
b10011111101101001110001111000011 *
b10011111101101001110001111000011 .
b1100000010010110001110000111100 0
1%
#900000000000000
b10000101111011010110110101000111 1
b100000 2
0%
b0 #
b0 (
b0 -
b1010010 3
#910000000000000
b11110001101111000111001110010 1
b100000 2
b1111010000100101001001010111000 *
b1111010000100101001001010111000 .
b10000101111011010110110101000111 0
1%
#920000000000000
b11010111101101001001111000101 1
b100000 2
0%
b10 #
b10 (
b10 -
b1010000 3
#930000000000000
b1101111000110110101001010100011 1
b100000 2
b11100101000010010110110000111010 *
b11100101000010010110110000111010 .
b11010111101101001001111000101 0
1%
#940000000000000
0%
b1001110 3
#950000000000000
b10111100011011010100101010001100 1
b100000 2
b10010000111001001010110101011100 *
b10010000111001001010110101011100 .
b1101111000110110101001010100011 0
1%
#960000000000000
b10110001001011100110110001010101 1
b100000 2
0%
b1 #
b1 (
b1 -
b1001100 3
#970000000000000
b11000100101110011011000101010100 1
b100000 2
b1001110110100011001001110101010 *
b1001110110100011001001110101010 .
b10110001001011100110110001010101 0
1%
#980000000000000
0%
b1001010 3
#990000000000000
b10110001001111101100011100111 1
b100000 2
b111011010001100100111010101011 *
b111011010001100100111010101011 .
b11000100101110011011000101010100 0
1%
#1000000000000000
b10010111001101100010101010000 1
b100000 2
0%
b11 #
b11 (
b11 -
b1001000 3
#1010000000000000
b1000110110110000011001110011001 1
b100000 2
b11101101000110010011101010101111 *
b11101101000110010011101010101111 .
b10010111001101100010101010000 0
1%
#1020000000000000
b1001111010110100000100011110111 1
b100000 2
0%
b10 #
b10 (
b10 -
b1000110 3
#1030000000000000
b111101011010000010001111011100 1
b100000 2
b10110000101001011111011100001000 *
b10110000101001011111011100001000 .
b1001111010110100000100011110111 0
1%
#1040000000000000
b110000001010110000010100000101 1
b100000 2
0%
b1 #
b1 (
b1 -
b1000100 3
#1050000000000000
b11001001001011100010111101111010 1
b100000 2
b11001111110101001111101011111010 *
b11001111110101001111101011111010 .
b110000001010110000010100000101 0
1%
#1060000000000000
b11000100011011010000100110100011 1
b100000 2
0%
b10 #
b10 (
b10 -
b1000010 3
#1070000000000000
b11000001101100001110111100010 1
b100000 2
b111011100100101111011001011100 *
b111011100100101111011001011100 .
b11000100011011010000100110100011 0
1%
#1080000000000000
b10101011101010011101100111011 1
b100000 2
0%
b1 #
b1 (
b1 -
b1000000 3
#1090000000000000
b1011100010101101101011110000010 1
b100000 2
b11101010100010101100010011000100 *
b11101010100010101100010011000100 .
b10101011101010011101100111011 0
1%
#1100000000000000
b1010001000101011111000101011011 1
b100000 2
0%
b10 #
b10 (
b10 -
b111110 3
#1110000000000000
b1000100010101111100010101101100 1
b100000 2
b10101110111010100000111010100100 *
b10101110111010100000111010100100 .
b1010001000101011111000101011011 0
1%
#1120000000000000
b1001001000101001110001110110101 1
b100000 2
0%
b1 #
b1 (
b1 -
b111100 3
#1130000000000000
b101001000100001010100000001101 1
b100000 2
b10110110111010110001110001001010 *
b10110110111010110001110001001010 .
b1001001000101001110001110110101 0
1%
#1140000000000000
b100000100100101001001101100011 1
b100000 2
0%
b0 #
b0 (
b0 -
b111010 3
#1150000000000000
b10000010010010100100110110001100 1
b100000 2
b11011111011011010110110010011100 *
b11011111011011010110110010011100 .
b100000100100101001001101100011 0
1%
#1160000000000000
b10000110100010110101000000111011 1
b100000 2
0%
b10 #
b10 (
b10 -
b111000 3
#1170000000000000
b10111011011100110011000110101 1
b100000 2
b1111001011101001010111111000100 *
b1111001011101001010111111000100 .
b10000110100010110101000000111011 0
1%
#1180000000000000
0%
b110110 3
#1190000000000000
b1011001011110001000010101100011 1
b100000 2
b11101000100100011001100111001010 *
b11101000100100011001100111001010 .
b10111011011100110011000110101 0
1%
#1200000000000000
b1010000111110101011111000001101 1
b100000 2
0%
b11 #
b11 (
b11 -
b110100 3
#1210000000000000
b1001010011010001100001101011010 1
b100000 2
b10101111000001010100000111110010 *
b10101111000001010100000111110010 .
b1010000111110101011111000001101 0
1%
#1220000000000000
b1000111001010111110010110000011 1
b100000 2
0%
b0 #
b0 (
b0 -
b110010 3
#1230000000000000
b11000011011101000101110111011 1
b100000 2
b10111000110101000001101001111100 *
b10111000110101000001101001111100 .
b1000111001010111110010110000011 0
1%
#1240000000000000
b10101001011011010110101100010 1
b100000 2
0%
b11 #
b11 (
b11 -
b110000 3
#1250000000000000
b1011001111101011001001101010001 1
b100000 2
b11101010110100100101001010011101 *
b11101010110100100101001010011101 .
b10101001011011010110101100010 0
1%
#1260000000000000
b1010000011101111010100000111111 1
b100000 2
0%
b10 #
b10 (
b10 -
b101110 3
#1270000000000000
b1000001110111101010000011111100 1
b100000 2
b10101111100010000101011111000000 *
b10101111100010000101011111000000 .
b1010000011101111010100000111111 0
1%
#1280000000000000
b1001000010111001001101110010010 1
b100000 2
0%
b11 #
b11 (
b11 -
b101100 3
#1290000000000000
b101000111100000101010100100110 1
b100000 2
b10110111101000110110010001101101 *
b10110111101000110110010001101101 .
b1001000010111001001101110010010 0
1%
#1300000000000000
b100001011100100110111001001000 1
b100000 2
0%
b10 #
b10 (
b10 -
b101010 3
#1310000000000000
b10000001000010001010010010010111 1
b100000 2
b11011110100011011001000110110111 *
b11011110100011011001000110110111 .
b100001011100100110111001001000 0
1%
#1320000000000000
b10000101110010011011100100100000 1
b100000 2
0%
b0 #
b0 (
b0 -
b101000 3
#1330000000000000
b11110101001001101111111101110 1
b100000 2
b1111010001101100100011011011111 *
b1111010001101100100011011011111 .
b10000101110010011011100100100000 0
1%
#1340000000000000
0%
b100110 3
#1350000000000000
b1111010100100110111111110111000 1
b100000 2
b11100001010110110010000000010001 *
b11100001010110110010000000010001 .
b11110101001001101111111101110 0
1%
#1360000000000000
b1110011000100010100010011010110 1
b100000 2
0%
b1 #
b1 (
b1 -
b100100 3
#1370000000000000
b11000001000001100011010110000001 1
b100000 2
b10001100111011101011101100101001 *
b10001100111011101011101100101001 .
b1110011000100010100010011010110 0
1%
#1380000000000000
b11001000100001000000111011101111 1
b100000 2
0%
b0 #
b0 (
b0 -
b100010 3
#1390000000000000
b101111010100110001110101100101 1
b100000 2
b110111011110111111000100010000 *
b110111011110111111000100010000 .
b11001000100001000000111011101111 0
1%
#1400000000000000
0%
b100000 3
#1410000000000000
b10111101010011000111010110010100 1
b100000 2
b11010000101011001110001010011010 *
b11010000101011001110001010011010 .
b101111010100110001110101100101 0
1%
#1420000000000000
b10111001100011010110100000100011 1
b100000 2
0%
b10 #
b10 (
b10 -
b11110 3
#1430000000000000
b11101011011101101000011001010101 1
b100000 2
b1000110011100101001011111011100 *
b1000110011100101001011111011100 .
b10111001100011010110100000100011 0
1%
#1440000000000000
b11100010111101001011110100111011 1
b100000 2
0%
b11 #
b11 (
b11 -
b11100 3
#1450000000000000
b10001011110100101111010011101100 1
b100000 2
b11101000010110100001011000100 *
b11101000010110100001011000100 .
b11100010111101001011110100111011 0
1%
#1460000000000000
b10000010010100001100111110000010 1
b100000 2
0%
b10 #
b10 (
b10 -
b11010 3
#1470000000000000
b100000000000001100011010001 1
b100000 2
b1111101101011110011000001111101 *
b1111101101011110011000001111101 .
b10000010010100001100111110000010 0
1%
#1480000000000000
b110000010000010101100110 1
b100000 2
0%
b0 #
b0 (
b0 -
b11000 3
#1490000000000000
b11000001000001010110011000 1
b100000 2
b11111111001111101111101010011001 *
b11111111001111101111101010011001 .
b110000010000010101100110 0
1%
#1500000000000000
b111110001010000100000101111 1
b100000 2
0%
b10 #
b10 (
b10 -
b10110 3
#1510000000000000
b11011110101010011110100001011 1
b100000 2
b11111000001110101111011111010000 *
b11111000001110101111011111010000 .
b111110001010000100000101111 0
1%
#1520000000000000
b10110100101100001101111010010 1
b100000 2
0%
b1 #
b1 (
b1 -
b10100 3
#1530000000000000
b1010011110110100101010000100110 1
b100000 2
b11101001011010011110010000101101 *
b11101001011010011110010000101101 .
b10110100101100001101111010010 0
1%
#1540000000000000
0%
b10010 3
#1550000000000000
b1000010001010100111011001000001 1
b100000 2
b10101100001001011010101111011001 *
b10101100001001011010101111011001 .
b1010011110110100101010000100110 0
1%
#1560000000000000
b1001111011010010101000010011000 1
b100000 2
0%
b10 #
b10 (
b10 -
b10000 3
#1570000000000000
b111101101001010100001001100000 1
b100000 2
b10110000100101101010111101100111 *
b10110000100101101010111101100111 .
b1001111011010010101000010011000 0
1%
#1580000000000000
0%
b1110 3
#1590000000000000
b11110010010101000001010000110111 1
b100000 2
b11000010010110101011110110011111 *
b11000010010110101011110110011111 .
b111101101001010100001001100000 0
1%
#1600000000000000
b11111111000101110011001011101110 1
b100000 2
0%
b1 #
b1 (
b1 -
b1100 3
#1610000000000000
b11111000100111011101011000001111 1
b100000 2
b111010001100110100010001 *
b111010001100110100010001 .
b11111111000101110011001011101110 0
1%
#1620000000000000
b11111100010111001100101110111000 1
b100000 2
0%
b11 #
b11 (
b11 -
b1010 3
#1630000000000000
b11110001011100110010111011100000 1
b100000 2
b11101000110011010001000111 *
b11101000110011010001000111 .
b11111100010111001100101110111000 0
1%
#1640000000000000
b11111000111100010001010110001110 1
b100000 2
0%
b10 #
b10 (
b10 -
b1000 3
#1650000000000000
b11101010010001100110110101010110 1
b100000 2
b111000011101110101001110001 *
b111000011101110101001110001 .
b11111000111100010001010110001110 0
1%
#1660000000000000
0%
b110 3
#1670000000000000
b10100000100110111000111000110110 1
b100000 2
b10101101110011001001010101001 *
b10101101110011001001010101001 .
b11101010010001100110110101010110 0
1%
#1680000000000000
b10101101110110001010100011101111 1
b100000 2
0%
b1 #
b1 (
b1 -
b100 3
#1690000000000000
b10110111011000101010001110111100 1
b100000 2
b1010010001001110101011100010000 *
b1010010001001110101011100010000 .
b10101101110110001010100011101111 0
1%
#1700000000000000
b10111010001000011000010101100101 1
b100000 2
0%
b10 #
b10 (
b10 -
b10 3
#1710000000000000
b11100101110001010011001101001101 1
b100000 2
b1000101110111100111101010011010 *
b1000101110111100111101010011010 .
b10111010001000011000010101100101 0
1%
#1720000000000000
0%
b0 3
#1730000000000000
b10011110100101101111011001011010 1
b100000 2
b11010001110101100110010110010 *
b11010001110101100110010110010 .
b11100101110001010011001101001101 0
1%
#1740000000000000
1)
0%
0$
b11111111111111111111111111111110 3
#1750000000000000
b11110110011111011100010010010010 1
b100000 2
b0 *
b0 .
1!
1"
1+
0,
b11111111111111111111111111111111 0
1%
#1760000000000000
0%
#1770000000000000
0+
1%
